<mxfile host="app.diagrams.net" modified="2020-10-10T04:12:31.398Z" agent="5.0 (Windows NT 10.0; Win64; x64) AppleWebKit/537.36 (KHTML, like Gecko) Chrome/85.0.4183.121 Safari/537.36" etag="2EYTu-yKwN7A4QrMbjOk" version="13.1.1" type="gitlab">
  <diagram id="c0YjHPThXxI-RG9sxRkC" name="Page-1">
    <mxGraphModel dx="917" dy="1120" grid="1" gridSize="10" guides="1" tooltips="1" connect="1" arrows="1" fold="1" page="1" pageScale="1" pageWidth="850" pageHeight="1100" math="0" shadow="0">
      <root>
        <mxCell id="0" />
        <mxCell id="1" parent="0" />
        <mxCell id="pqOMz7-BR9ZxwAHgmei3-1" value="&lt;font style=&quot;font-size: 17px&quot;&gt;SILAU&lt;/font&gt;" style="text;html=1;strokeColor=none;fillColor=none;align=center;verticalAlign=middle;whiteSpace=wrap;rounded=0;" parent="1" vertex="1">
          <mxGeometry x="417" y="20" width="40" height="20" as="geometry" />
        </mxCell>
        <mxCell id="pqOMz7-BR9ZxwAHgmei3-18" style="edgeStyle=none;rounded=0;orthogonalLoop=1;jettySize=auto;html=1;exitX=1;exitY=0.5;exitDx=0;exitDy=0;entryX=0;entryY=0.5;entryDx=0;entryDy=0;endArrow=none;endFill=0;" parent="1" source="pqOMz7-BR9ZxwAHgmei3-2" target="pqOMz7-BR9ZxwAHgmei3-17" edge="1">
          <mxGeometry relative="1" as="geometry" />
        </mxCell>
        <mxCell id="pqOMz7-BR9ZxwAHgmei3-20" style="edgeStyle=none;rounded=0;orthogonalLoop=1;jettySize=auto;html=1;exitX=1;exitY=0.75;exitDx=0;exitDy=0;endArrow=none;endFill=0;" parent="1" source="pqOMz7-BR9ZxwAHgmei3-2" target="pqOMz7-BR9ZxwAHgmei3-19" edge="1">
          <mxGeometry relative="1" as="geometry" />
        </mxCell>
        <mxCell id="pqOMz7-BR9ZxwAHgmei3-22" style="edgeStyle=none;rounded=0;orthogonalLoop=1;jettySize=auto;html=1;exitX=0;exitY=0.25;exitDx=0;exitDy=0;entryX=1;entryY=0.5;entryDx=0;entryDy=0;endArrow=none;endFill=0;" parent="1" source="pqOMz7-BR9ZxwAHgmei3-2" target="pqOMz7-BR9ZxwAHgmei3-21" edge="1">
          <mxGeometry relative="1" as="geometry" />
        </mxCell>
        <mxCell id="pqOMz7-BR9ZxwAHgmei3-2" value="USER" style="rounded=0;whiteSpace=wrap;html=1;" parent="1" vertex="1">
          <mxGeometry x="380" y="80" width="110" height="50" as="geometry" />
        </mxCell>
        <mxCell id="pqOMz7-BR9ZxwAHgmei3-4" style="rounded=0;orthogonalLoop=1;jettySize=auto;html=1;exitX=0.5;exitY=0;exitDx=0;exitDy=0;entryX=0.445;entryY=1;entryDx=0;entryDy=0;shape=link;entryPerimeter=0;" parent="1" source="pqOMz7-BR9ZxwAHgmei3-3" target="pqOMz7-BR9ZxwAHgmei3-2" edge="1">
          <mxGeometry relative="1" as="geometry" />
        </mxCell>
        <mxCell id="pqOMz7-BR9ZxwAHgmei3-8" style="edgeStyle=none;rounded=0;orthogonalLoop=1;jettySize=auto;html=1;entryX=0.5;entryY=0;entryDx=0;entryDy=0;endArrow=none;endFill=0;startArrow=halfCircle;startFill=0;" parent="1" target="pqOMz7-BR9ZxwAHgmei3-6" edge="1">
          <mxGeometry relative="1" as="geometry">
            <mxPoint x="480" y="180" as="sourcePoint" />
          </mxGeometry>
        </mxCell>
        <mxCell id="pqOMz7-BR9ZxwAHgmei3-3" value="d" style="ellipse;whiteSpace=wrap;html=1;aspect=fixed;" parent="1" vertex="1">
          <mxGeometry x="414" y="160" width="30" height="30" as="geometry" />
        </mxCell>
        <mxCell id="aL31cBoGjBFPOwP5rx8Z-29" style="edgeStyle=none;rounded=0;jumpStyle=none;orthogonalLoop=1;jettySize=auto;html=1;exitX=1;exitY=0;exitDx=0;exitDy=0;startArrow=none;startFill=0;startSize=12;endArrow=halfCircle;endFill=0;endSize=7;" edge="1" parent="1" source="pqOMz7-BR9ZxwAHgmei3-5">
          <mxGeometry relative="1" as="geometry">
            <mxPoint x="390" y="180" as="targetPoint" />
          </mxGeometry>
        </mxCell>
        <mxCell id="aL31cBoGjBFPOwP5rx8Z-116" style="edgeStyle=none;rounded=0;jumpStyle=none;orthogonalLoop=1;jettySize=auto;html=1;exitX=1;exitY=0.5;exitDx=0;exitDy=0;entryX=0.035;entryY=0.321;entryDx=0;entryDy=0;entryPerimeter=0;startArrow=none;startFill=0;endArrow=none;endFill=0;" edge="1" parent="1" source="pqOMz7-BR9ZxwAHgmei3-5" target="aL31cBoGjBFPOwP5rx8Z-114">
          <mxGeometry relative="1" as="geometry" />
        </mxCell>
        <mxCell id="pqOMz7-BR9ZxwAHgmei3-5" value="PELANGGAN" style="whiteSpace=wrap;html=1;align=center;" parent="1" vertex="1">
          <mxGeometry x="160" y="220" width="100" height="40" as="geometry" />
        </mxCell>
        <mxCell id="pqOMz7-BR9ZxwAHgmei3-10" style="edgeStyle=none;rounded=0;orthogonalLoop=1;jettySize=auto;html=1;exitX=0.5;exitY=1;exitDx=0;exitDy=0;entryX=0.5;entryY=0;entryDx=0;entryDy=0;endArrow=none;endFill=0;shape=link;" parent="1" source="pqOMz7-BR9ZxwAHgmei3-6" target="pqOMz7-BR9ZxwAHgmei3-9" edge="1">
          <mxGeometry relative="1" as="geometry" />
        </mxCell>
        <mxCell id="aL31cBoGjBFPOwP5rx8Z-10" style="edgeStyle=none;rounded=0;orthogonalLoop=1;jettySize=auto;html=1;exitX=0.75;exitY=0;exitDx=0;exitDy=0;entryX=0;entryY=1;entryDx=0;entryDy=0;endArrow=none;endFill=0;" edge="1" parent="1" source="pqOMz7-BR9ZxwAHgmei3-6" target="aL31cBoGjBFPOwP5rx8Z-9">
          <mxGeometry relative="1" as="geometry" />
        </mxCell>
        <mxCell id="aL31cBoGjBFPOwP5rx8Z-12" style="edgeStyle=none;rounded=0;orthogonalLoop=1;jettySize=auto;html=1;exitX=1;exitY=0.5;exitDx=0;exitDy=0;entryX=0;entryY=0.5;entryDx=0;entryDy=0;endArrow=none;endFill=0;" edge="1" parent="1" source="pqOMz7-BR9ZxwAHgmei3-6" target="aL31cBoGjBFPOwP5rx8Z-11">
          <mxGeometry relative="1" as="geometry" />
        </mxCell>
        <mxCell id="pqOMz7-BR9ZxwAHgmei3-6" value="PEGAWAI" style="whiteSpace=wrap;html=1;align=center;" parent="1" vertex="1">
          <mxGeometry x="550" y="210" width="100" height="40" as="geometry" />
        </mxCell>
        <mxCell id="pqOMz7-BR9ZxwAHgmei3-15" style="edgeStyle=none;rounded=0;orthogonalLoop=1;jettySize=auto;html=1;entryX=0.25;entryY=0;entryDx=0;entryDy=0;endArrow=none;endFill=0;startArrow=halfCircle;startFill=0;" parent="1" target="pqOMz7-BR9ZxwAHgmei3-12" edge="1">
          <mxGeometry relative="1" as="geometry">
            <mxPoint x="620" y="306" as="sourcePoint" />
          </mxGeometry>
        </mxCell>
        <mxCell id="pqOMz7-BR9ZxwAHgmei3-9" value="d" style="ellipse;whiteSpace=wrap;html=1;aspect=fixed;" parent="1" vertex="1">
          <mxGeometry x="585" y="280" width="30" height="30" as="geometry" />
        </mxCell>
        <mxCell id="aL31cBoGjBFPOwP5rx8Z-7" style="edgeStyle=none;rounded=0;orthogonalLoop=1;jettySize=auto;html=1;exitX=0.5;exitY=0;exitDx=0;exitDy=0;entryX=0;entryY=1;entryDx=0;entryDy=0;endArrow=none;endFill=0;" edge="1" parent="1" source="pqOMz7-BR9ZxwAHgmei3-12" target="aL31cBoGjBFPOwP5rx8Z-6">
          <mxGeometry relative="1" as="geometry" />
        </mxCell>
        <mxCell id="pqOMz7-BR9ZxwAHgmei3-12" value="PENCUCI" style="whiteSpace=wrap;html=1;align=center;" parent="1" vertex="1">
          <mxGeometry x="640" y="320" width="100" height="40" as="geometry" />
        </mxCell>
        <mxCell id="pqOMz7-BR9ZxwAHgmei3-14" style="edgeStyle=none;rounded=0;orthogonalLoop=1;jettySize=auto;html=1;exitX=1;exitY=0;exitDx=0;exitDy=0;endArrow=halfCircle;endFill=0;" parent="1" source="pqOMz7-BR9ZxwAHgmei3-13" edge="1">
          <mxGeometry relative="1" as="geometry">
            <mxPoint x="580" y="306" as="targetPoint" />
          </mxGeometry>
        </mxCell>
        <mxCell id="pqOMz7-BR9ZxwAHgmei3-13" value="KURIR" style="whiteSpace=wrap;html=1;align=center;" parent="1" vertex="1">
          <mxGeometry x="457" y="320" width="100" height="40" as="geometry" />
        </mxCell>
        <mxCell id="pqOMz7-BR9ZxwAHgmei3-17" value="Email" style="ellipse;whiteSpace=wrap;html=1;align=center;fontStyle=4;" parent="1" vertex="1">
          <mxGeometry x="540" y="60" width="100" height="40" as="geometry" />
        </mxCell>
        <mxCell id="pqOMz7-BR9ZxwAHgmei3-19" value="Password" style="ellipse;whiteSpace=wrap;html=1;align=center;" parent="1" vertex="1">
          <mxGeometry x="540" y="110" width="100" height="40" as="geometry" />
        </mxCell>
        <mxCell id="pqOMz7-BR9ZxwAHgmei3-21" value="Nama" style="ellipse;whiteSpace=wrap;html=1;align=center;" parent="1" vertex="1">
          <mxGeometry x="240" y="70" width="100" height="40" as="geometry" />
        </mxCell>
        <mxCell id="pqOMz7-BR9ZxwAHgmei3-24" value="" style="edgeStyle=none;rounded=0;orthogonalLoop=1;jettySize=auto;html=1;endArrow=none;endFill=0;" parent="1" source="pqOMz7-BR9ZxwAHgmei3-23" target="pqOMz7-BR9ZxwAHgmei3-2" edge="1">
          <mxGeometry relative="1" as="geometry" />
        </mxCell>
        <mxCell id="pqOMz7-BR9ZxwAHgmei3-23" value="Alamat" style="ellipse;whiteSpace=wrap;html=1;align=center;" parent="1" vertex="1">
          <mxGeometry x="240" y="110" width="100" height="40" as="geometry" />
        </mxCell>
        <mxCell id="aL31cBoGjBFPOwP5rx8Z-2" style="rounded=0;orthogonalLoop=1;jettySize=auto;html=1;exitX=0.5;exitY=1;exitDx=0;exitDy=0;entryX=0.25;entryY=0;entryDx=0;entryDy=0;endArrow=none;endFill=0;" edge="1" parent="1" source="aL31cBoGjBFPOwP5rx8Z-1" target="pqOMz7-BR9ZxwAHgmei3-5">
          <mxGeometry relative="1" as="geometry" />
        </mxCell>
        <mxCell id="aL31cBoGjBFPOwP5rx8Z-1" value="Sex" style="ellipse;whiteSpace=wrap;html=1;align=center;" vertex="1" parent="1">
          <mxGeometry x="140" y="100" width="100" height="40" as="geometry" />
        </mxCell>
        <mxCell id="aL31cBoGjBFPOwP5rx8Z-8" style="edgeStyle=none;rounded=0;orthogonalLoop=1;jettySize=auto;html=1;exitX=1;exitY=0;exitDx=0;exitDy=0;entryX=0;entryY=1;entryDx=0;entryDy=0;endArrow=none;endFill=0;" edge="1" parent="1" source="aL31cBoGjBFPOwP5rx8Z-3" target="pqOMz7-BR9ZxwAHgmei3-2">
          <mxGeometry relative="1" as="geometry" />
        </mxCell>
        <mxCell id="aL31cBoGjBFPOwP5rx8Z-3" value="No.HP" style="ellipse;whiteSpace=wrap;html=1;align=center;" vertex="1" parent="1">
          <mxGeometry x="250" y="150" width="100" height="40" as="geometry" />
        </mxCell>
        <mxCell id="aL31cBoGjBFPOwP5rx8Z-6" value="Sex" style="ellipse;whiteSpace=wrap;html=1;align=center;" vertex="1" parent="1">
          <mxGeometry x="670" y="250" width="100" height="40" as="geometry" />
        </mxCell>
        <mxCell id="aL31cBoGjBFPOwP5rx8Z-9" value="&lt;u&gt;NPWP&lt;/u&gt;" style="ellipse;whiteSpace=wrap;html=1;align=center;" vertex="1" parent="1">
          <mxGeometry x="630" y="160" width="100" height="40" as="geometry" />
        </mxCell>
        <mxCell id="aL31cBoGjBFPOwP5rx8Z-11" value="AkunBank" style="ellipse;whiteSpace=wrap;html=1;align=center;" vertex="1" parent="1">
          <mxGeometry x="690" y="200" width="100" height="40" as="geometry" />
        </mxCell>
        <mxCell id="aL31cBoGjBFPOwP5rx8Z-15" style="edgeStyle=none;rounded=0;orthogonalLoop=1;jettySize=auto;html=1;exitX=0.5;exitY=1;exitDx=0;exitDy=0;entryX=0.413;entryY=0.008;entryDx=0;entryDy=0;entryPerimeter=0;endArrow=none;endFill=0;" edge="1" parent="1" source="aL31cBoGjBFPOwP5rx8Z-14" target="pqOMz7-BR9ZxwAHgmei3-13">
          <mxGeometry relative="1" as="geometry" />
        </mxCell>
        <mxCell id="aL31cBoGjBFPOwP5rx8Z-14" value="&lt;u&gt;No.Plat&lt;/u&gt;" style="ellipse;whiteSpace=wrap;html=1;align=center;" vertex="1" parent="1">
          <mxGeometry x="500" y="260" width="90" height="30" as="geometry" />
        </mxCell>
        <mxCell id="aL31cBoGjBFPOwP5rx8Z-17" style="edgeStyle=none;rounded=0;orthogonalLoop=1;jettySize=auto;html=1;exitX=0.5;exitY=1;exitDx=0;exitDy=0;endArrow=none;endFill=0;" edge="1" parent="1" source="aL31cBoGjBFPOwP5rx8Z-16" target="pqOMz7-BR9ZxwAHgmei3-13">
          <mxGeometry relative="1" as="geometry" />
        </mxCell>
        <mxCell id="aL31cBoGjBFPOwP5rx8Z-16" value="&lt;u&gt;No.SIM&lt;/u&gt;" style="ellipse;whiteSpace=wrap;html=1;align=center;" vertex="1" parent="1">
          <mxGeometry x="400" y="250" width="85" height="30" as="geometry" />
        </mxCell>
        <mxCell id="aL31cBoGjBFPOwP5rx8Z-19" style="edgeStyle=none;rounded=0;orthogonalLoop=1;jettySize=auto;html=1;exitX=0.5;exitY=1;exitDx=0;exitDy=0;entryX=0.372;entryY=0;entryDx=0;entryDy=0;entryPerimeter=0;endArrow=none;endFill=0;" edge="1" parent="1" source="aL31cBoGjBFPOwP5rx8Z-18" target="pqOMz7-BR9ZxwAHgmei3-13">
          <mxGeometry relative="1" as="geometry" />
        </mxCell>
        <mxCell id="aL31cBoGjBFPOwP5rx8Z-18" value="JenisKendaraan" style="ellipse;whiteSpace=wrap;html=1;align=center;" vertex="1" parent="1">
          <mxGeometry x="444" y="200" width="100" height="40" as="geometry" />
        </mxCell>
        <mxCell id="aL31cBoGjBFPOwP5rx8Z-30" value="" style="endArrow=none;html=1;entryX=0.033;entryY=0.433;entryDx=0;entryDy=0;entryPerimeter=0;" edge="1" parent="1" target="pqOMz7-BR9ZxwAHgmei3-3">
          <mxGeometry width="50" height="50" relative="1" as="geometry">
            <mxPoint x="370" y="185" as="sourcePoint" />
            <mxPoint x="410" y="175" as="targetPoint" />
          </mxGeometry>
        </mxCell>
        <mxCell id="aL31cBoGjBFPOwP5rx8Z-31" value="" style="endArrow=none;html=1;exitX=1.009;exitY=0.445;exitDx=0;exitDy=0;exitPerimeter=0;" edge="1" parent="1" source="pqOMz7-BR9ZxwAHgmei3-3">
          <mxGeometry width="50" height="50" relative="1" as="geometry">
            <mxPoint x="446" y="177" as="sourcePoint" />
            <mxPoint x="490" y="182" as="targetPoint" />
          </mxGeometry>
        </mxCell>
        <mxCell id="aL31cBoGjBFPOwP5rx8Z-32" value="" style="endArrow=none;html=1;" edge="1" parent="1">
          <mxGeometry width="50" height="50" relative="1" as="geometry">
            <mxPoint x="571" y="311" as="sourcePoint" />
            <mxPoint x="586" y="301" as="targetPoint" />
          </mxGeometry>
        </mxCell>
        <mxCell id="aL31cBoGjBFPOwP5rx8Z-33" value="" style="endArrow=none;html=1;" edge="1" parent="1" source="pqOMz7-BR9ZxwAHgmei3-9">
          <mxGeometry width="50" height="50" relative="1" as="geometry">
            <mxPoint x="590" y="330" as="sourcePoint" />
            <mxPoint x="630" y="310" as="targetPoint" />
          </mxGeometry>
        </mxCell>
        <mxCell id="aL31cBoGjBFPOwP5rx8Z-39" style="edgeStyle=none;rounded=0;jumpStyle=none;orthogonalLoop=1;jettySize=auto;html=1;entryX=1;entryY=0.5;entryDx=0;entryDy=0;startArrow=none;startFill=0;startSize=12;endArrow=none;endFill=0;endSize=7;" edge="1" parent="1">
          <mxGeometry relative="1" as="geometry">
            <mxPoint x="370" y="430" as="sourcePoint" />
            <mxPoint x="370" y="430" as="targetPoint" />
          </mxGeometry>
        </mxCell>
        <mxCell id="aL31cBoGjBFPOwP5rx8Z-81" style="edgeStyle=none;rounded=0;jumpStyle=none;orthogonalLoop=1;jettySize=auto;html=1;exitX=1;exitY=0.75;exitDx=0;exitDy=0;entryX=0;entryY=0.5;entryDx=0;entryDy=0;startArrow=none;startFill=0;endArrow=none;endFill=0;" edge="1" parent="1" source="aL31cBoGjBFPOwP5rx8Z-41" target="aL31cBoGjBFPOwP5rx8Z-80">
          <mxGeometry relative="1" as="geometry" />
        </mxCell>
        <mxCell id="aL31cBoGjBFPOwP5rx8Z-83" style="edgeStyle=none;rounded=0;jumpStyle=none;orthogonalLoop=1;jettySize=auto;html=1;exitX=0.25;exitY=0;exitDx=0;exitDy=0;entryX=0;entryY=0.5;entryDx=0;entryDy=0;startArrow=none;startFill=0;endArrow=none;endFill=0;" edge="1" parent="1" source="aL31cBoGjBFPOwP5rx8Z-41" target="aL31cBoGjBFPOwP5rx8Z-82">
          <mxGeometry relative="1" as="geometry" />
        </mxCell>
        <mxCell id="aL31cBoGjBFPOwP5rx8Z-86" style="edgeStyle=none;rounded=0;jumpStyle=none;orthogonalLoop=1;jettySize=auto;html=1;exitX=1;exitY=0;exitDx=0;exitDy=0;startArrow=none;startFill=0;endArrow=none;endFill=0;entryX=0;entryY=0.5;entryDx=0;entryDy=0;" edge="1" parent="1" source="aL31cBoGjBFPOwP5rx8Z-41" target="aL31cBoGjBFPOwP5rx8Z-85">
          <mxGeometry relative="1" as="geometry" />
        </mxCell>
        <mxCell id="aL31cBoGjBFPOwP5rx8Z-41" value="TRANSAKSI" style="shape=ext;margin=3;double=1;whiteSpace=wrap;html=1;align=center;" vertex="1" parent="1">
          <mxGeometry x="180" y="450" width="100" height="40" as="geometry" />
        </mxCell>
        <mxCell id="aL31cBoGjBFPOwP5rx8Z-42" value="DICUCI" style="shape=rhombus;double=1;perimeter=rhombusPerimeter;whiteSpace=wrap;html=1;align=center;" vertex="1" parent="1">
          <mxGeometry x="437" y="410" width="120" height="60" as="geometry" />
        </mxCell>
        <mxCell id="aL31cBoGjBFPOwP5rx8Z-43" value="MELAKUKAN" style="shape=rhombus;perimeter=rhombusPerimeter;whiteSpace=wrap;html=1;align=center;" vertex="1" parent="1">
          <mxGeometry x="100" y="290" width="120" height="60" as="geometry" />
        </mxCell>
        <mxCell id="aL31cBoGjBFPOwP5rx8Z-47" value="" style="endArrow=none;html=1;rounded=0;exitX=1;exitY=0.5;exitDx=0;exitDy=0;shape=link;" edge="1" parent="1" source="aL31cBoGjBFPOwP5rx8Z-41" target="aL31cBoGjBFPOwP5rx8Z-42">
          <mxGeometry relative="1" as="geometry">
            <mxPoint x="370" y="429.5" as="sourcePoint" />
            <mxPoint x="460" y="430" as="targetPoint" />
          </mxGeometry>
        </mxCell>
        <mxCell id="aL31cBoGjBFPOwP5rx8Z-49" value="" style="endArrow=none;html=1;rounded=0;exitX=0;exitY=1;exitDx=0;exitDy=0;entryX=1;entryY=0.5;entryDx=0;entryDy=0;" edge="1" parent="1" source="pqOMz7-BR9ZxwAHgmei3-12" target="aL31cBoGjBFPOwP5rx8Z-42">
          <mxGeometry relative="1" as="geometry">
            <mxPoint x="500" y="390" as="sourcePoint" />
            <mxPoint x="580" y="430" as="targetPoint" />
          </mxGeometry>
        </mxCell>
        <mxCell id="aL31cBoGjBFPOwP5rx8Z-50" value="N" style="resizable=0;html=1;align=right;verticalAlign=bottom;" connectable="0" vertex="1" parent="aL31cBoGjBFPOwP5rx8Z-49">
          <mxGeometry x="1" relative="1" as="geometry" />
        </mxCell>
        <mxCell id="aL31cBoGjBFPOwP5rx8Z-51" value="" style="endArrow=none;html=1;rounded=0;entryX=0.5;entryY=0;entryDx=0;entryDy=0;exitX=0.429;exitY=1.018;exitDx=0;exitDy=0;exitPerimeter=0;shape=link;" edge="1" parent="1" source="pqOMz7-BR9ZxwAHgmei3-5" target="aL31cBoGjBFPOwP5rx8Z-43">
          <mxGeometry relative="1" as="geometry">
            <mxPoint x="250" y="340" as="sourcePoint" />
            <mxPoint x="210" y="280" as="targetPoint" />
          </mxGeometry>
        </mxCell>
        <mxCell id="aL31cBoGjBFPOwP5rx8Z-52" value="N" style="resizable=0;html=1;align=right;verticalAlign=bottom;" connectable="0" vertex="1" parent="aL31cBoGjBFPOwP5rx8Z-51">
          <mxGeometry x="1" relative="1" as="geometry">
            <mxPoint x="-9.97" y="0.12" as="offset" />
          </mxGeometry>
        </mxCell>
        <mxCell id="aL31cBoGjBFPOwP5rx8Z-53" value="" style="endArrow=none;html=1;rounded=0;exitX=0;exitY=0;exitDx=0;exitDy=0;entryX=0.5;entryY=1;entryDx=0;entryDy=0;shape=link;" edge="1" parent="1" source="aL31cBoGjBFPOwP5rx8Z-41" target="aL31cBoGjBFPOwP5rx8Z-43">
          <mxGeometry relative="1" as="geometry">
            <mxPoint x="100" y="430" as="sourcePoint" />
            <mxPoint x="160" y="360" as="targetPoint" />
          </mxGeometry>
        </mxCell>
        <mxCell id="aL31cBoGjBFPOwP5rx8Z-55" value="1" style="text;html=1;strokeColor=none;fillColor=none;align=center;verticalAlign=middle;whiteSpace=wrap;rounded=0;" vertex="1" parent="1">
          <mxGeometry x="130" y="350" width="40" height="20" as="geometry" />
        </mxCell>
        <mxCell id="aL31cBoGjBFPOwP5rx8Z-60" style="edgeStyle=none;rounded=0;jumpStyle=none;orthogonalLoop=1;jettySize=auto;html=1;exitX=0.5;exitY=0;exitDx=0;exitDy=0;startArrow=none;startFill=0;startSize=12;endArrow=none;endFill=0;endSize=7;entryX=0;entryY=1;entryDx=0;entryDy=0;" edge="1" parent="1" source="aL31cBoGjBFPOwP5rx8Z-59" target="aL31cBoGjBFPOwP5rx8Z-63">
          <mxGeometry relative="1" as="geometry">
            <mxPoint x="150" y="550" as="targetPoint" />
          </mxGeometry>
        </mxCell>
        <mxCell id="aL31cBoGjBFPOwP5rx8Z-59" value="&lt;u&gt;JenisLayanan&lt;/u&gt;" style="ellipse;whiteSpace=wrap;html=1;align=center;" vertex="1" parent="1">
          <mxGeometry x="20" y="570" width="100" height="40" as="geometry" />
        </mxCell>
        <mxCell id="aL31cBoGjBFPOwP5rx8Z-62" style="edgeStyle=none;rounded=0;jumpStyle=none;orthogonalLoop=1;jettySize=auto;html=1;exitX=0.5;exitY=0;exitDx=0;exitDy=0;startArrow=none;startFill=0;startSize=12;endArrow=none;endFill=0;endSize=7;" edge="1" parent="1" source="aL31cBoGjBFPOwP5rx8Z-61" target="aL31cBoGjBFPOwP5rx8Z-63">
          <mxGeometry relative="1" as="geometry">
            <mxPoint x="200" y="560" as="targetPoint" />
          </mxGeometry>
        </mxCell>
        <mxCell id="aL31cBoGjBFPOwP5rx8Z-61" value="JenisDurasi" style="ellipse;whiteSpace=wrap;html=1;align=center;fontStyle=4;" vertex="1" parent="1">
          <mxGeometry x="90" y="620" width="100" height="40" as="geometry" />
        </mxCell>
        <mxCell id="aL31cBoGjBFPOwP5rx8Z-64" style="edgeStyle=none;rounded=0;jumpStyle=none;orthogonalLoop=1;jettySize=auto;html=1;exitX=1;exitY=0;exitDx=0;exitDy=0;entryX=0.25;entryY=1;entryDx=0;entryDy=0;startArrow=none;startFill=0;startSize=12;endArrow=none;endFill=0;endSize=7;" edge="1" parent="1" source="aL31cBoGjBFPOwP5rx8Z-63" target="aL31cBoGjBFPOwP5rx8Z-41">
          <mxGeometry relative="1" as="geometry" />
        </mxCell>
        <mxCell id="aL31cBoGjBFPOwP5rx8Z-63" value="IDLayanan" style="ellipse;whiteSpace=wrap;html=1;align=center;fontStyle=4;" vertex="1" parent="1">
          <mxGeometry x="60" y="520" width="100" height="40" as="geometry" />
        </mxCell>
        <mxCell id="aL31cBoGjBFPOwP5rx8Z-66" style="edgeStyle=none;rounded=0;jumpStyle=none;orthogonalLoop=1;jettySize=auto;html=1;exitX=0.267;exitY=0.05;exitDx=0;exitDy=0;startArrow=none;startFill=0;endArrow=none;endFill=0;exitPerimeter=0;" edge="1" parent="1" source="aL31cBoGjBFPOwP5rx8Z-65" target="aL31cBoGjBFPOwP5rx8Z-41">
          <mxGeometry relative="1" as="geometry" />
        </mxCell>
        <mxCell id="aL31cBoGjBFPOwP5rx8Z-65" value="TanggalTransaksi" style="ellipse;whiteSpace=wrap;html=1;align=center;" vertex="1" parent="1">
          <mxGeometry x="160" y="680" width="100" height="40" as="geometry" />
        </mxCell>
        <mxCell id="aL31cBoGjBFPOwP5rx8Z-68" style="edgeStyle=none;rounded=0;jumpStyle=none;orthogonalLoop=1;jettySize=auto;html=1;startArrow=none;startFill=0;endArrow=none;endFill=0;" edge="1" parent="1" source="aL31cBoGjBFPOwP5rx8Z-67" target="aL31cBoGjBFPOwP5rx8Z-41">
          <mxGeometry relative="1" as="geometry" />
        </mxCell>
        <mxCell id="aL31cBoGjBFPOwP5rx8Z-67" value="JumlahItem" style="ellipse;whiteSpace=wrap;html=1;align=center;" vertex="1" parent="1">
          <mxGeometry x="205" y="620" width="100" height="40" as="geometry" />
        </mxCell>
        <mxCell id="aL31cBoGjBFPOwP5rx8Z-70" style="edgeStyle=none;rounded=0;jumpStyle=none;orthogonalLoop=1;jettySize=auto;html=1;exitX=0.5;exitY=0;exitDx=0;exitDy=0;entryX=0.75;entryY=1;entryDx=0;entryDy=0;startArrow=none;startFill=0;endArrow=none;endFill=0;" edge="1" parent="1" target="aL31cBoGjBFPOwP5rx8Z-41">
          <mxGeometry relative="1" as="geometry">
            <mxPoint x="340" y="680" as="sourcePoint" />
          </mxGeometry>
        </mxCell>
        <mxCell id="aL31cBoGjBFPOwP5rx8Z-71" value="1" style="text;html=1;strokeColor=none;fillColor=none;align=center;verticalAlign=middle;whiteSpace=wrap;rounded=0;" vertex="1" parent="1">
          <mxGeometry x="437" y="450" width="40" height="20" as="geometry" />
        </mxCell>
        <mxCell id="aL31cBoGjBFPOwP5rx8Z-75" style="edgeStyle=none;rounded=0;jumpStyle=none;orthogonalLoop=1;jettySize=auto;html=1;exitX=0.5;exitY=0;exitDx=0;exitDy=0;entryX=1;entryY=1;entryDx=0;entryDy=0;startArrow=none;startFill=0;endArrow=none;endFill=0;" edge="1" parent="1" source="aL31cBoGjBFPOwP5rx8Z-72" target="aL31cBoGjBFPOwP5rx8Z-41">
          <mxGeometry relative="1" as="geometry" />
        </mxCell>
        <mxCell id="aL31cBoGjBFPOwP5rx8Z-72" value="TotalBiaya" style="ellipse;whiteSpace=wrap;html=1;align=center;dashed=1;" vertex="1" parent="1">
          <mxGeometry x="330" y="630" width="100" height="30" as="geometry" />
        </mxCell>
        <mxCell id="aL31cBoGjBFPOwP5rx8Z-77" value="" style="edgeStyle=none;rounded=0;jumpStyle=none;orthogonalLoop=1;jettySize=auto;html=1;startArrow=none;startFill=0;endArrow=none;endFill=0;" edge="1" parent="1" source="aL31cBoGjBFPOwP5rx8Z-76" target="aL31cBoGjBFPOwP5rx8Z-41">
          <mxGeometry relative="1" as="geometry" />
        </mxCell>
        <mxCell id="aL31cBoGjBFPOwP5rx8Z-76" value="Status" style="ellipse;whiteSpace=wrap;html=1;align=center;dashed=1;" vertex="1" parent="1">
          <mxGeometry x="40" y="480" width="100" height="40" as="geometry" />
        </mxCell>
        <mxCell id="aL31cBoGjBFPOwP5rx8Z-80" value="RincianPakaian" style="ellipse;shape=doubleEllipse;margin=3;whiteSpace=wrap;html=1;align=center;" vertex="1" parent="1">
          <mxGeometry x="392.5" y="570" width="100" height="40" as="geometry" />
        </mxCell>
        <mxCell id="aL31cBoGjBFPOwP5rx8Z-84" style="edgeStyle=none;rounded=0;jumpStyle=none;orthogonalLoop=1;jettySize=auto;html=1;exitX=1;exitY=0.5;exitDx=0;exitDy=0;entryX=0;entryY=0.25;entryDx=0;entryDy=0;startArrow=none;startFill=0;endArrow=none;endFill=0;" edge="1" parent="1" source="aL31cBoGjBFPOwP5rx8Z-82" target="pqOMz7-BR9ZxwAHgmei3-13">
          <mxGeometry relative="1" as="geometry" />
        </mxCell>
        <mxCell id="aL31cBoGjBFPOwP5rx8Z-82" value="DIANTAR" style="shape=rhombus;double=1;perimeter=rhombusPerimeter;whiteSpace=wrap;html=1;align=center;" vertex="1" parent="1">
          <mxGeometry x="250" y="300" width="120" height="60" as="geometry" />
        </mxCell>
        <mxCell id="aL31cBoGjBFPOwP5rx8Z-87" style="edgeStyle=none;rounded=0;jumpStyle=none;orthogonalLoop=1;jettySize=auto;html=1;exitX=1;exitY=0.5;exitDx=0;exitDy=0;entryX=0;entryY=1;entryDx=0;entryDy=0;startArrow=none;startFill=0;endArrow=none;endFill=0;" edge="1" parent="1" source="aL31cBoGjBFPOwP5rx8Z-85" target="pqOMz7-BR9ZxwAHgmei3-13">
          <mxGeometry relative="1" as="geometry" />
        </mxCell>
        <mxCell id="aL31cBoGjBFPOwP5rx8Z-85" value="DIJEMPUT" style="shape=rhombus;double=1;perimeter=rhombusPerimeter;whiteSpace=wrap;html=1;align=center;" vertex="1" parent="1">
          <mxGeometry x="305" y="380" width="120" height="60" as="geometry" />
        </mxCell>
        <mxCell id="aL31cBoGjBFPOwP5rx8Z-88" value="1" style="text;html=1;strokeColor=none;fillColor=none;align=center;verticalAlign=middle;whiteSpace=wrap;rounded=0;" vertex="1" parent="1">
          <mxGeometry x="270" y="400" width="40" height="20" as="geometry" />
        </mxCell>
        <mxCell id="aL31cBoGjBFPOwP5rx8Z-89" value="1" style="text;html=1;strokeColor=none;fillColor=none;align=center;verticalAlign=middle;whiteSpace=wrap;rounded=0;" vertex="1" parent="1">
          <mxGeometry x="240" y="300" width="40" height="20" as="geometry" />
        </mxCell>
        <mxCell id="aL31cBoGjBFPOwP5rx8Z-90" value="N" style="text;html=1;strokeColor=none;fillColor=none;align=center;verticalAlign=middle;whiteSpace=wrap;rounded=0;" vertex="1" parent="1">
          <mxGeometry x="360" y="310" width="40" height="20" as="geometry" />
        </mxCell>
        <mxCell id="aL31cBoGjBFPOwP5rx8Z-91" value="N" style="text;html=1;strokeColor=none;fillColor=none;align=center;verticalAlign=middle;whiteSpace=wrap;rounded=0;" vertex="1" parent="1">
          <mxGeometry x="397" y="380" width="40" height="20" as="geometry" />
        </mxCell>
        <mxCell id="aL31cBoGjBFPOwP5rx8Z-93" value="" style="edgeStyle=none;rounded=0;jumpStyle=none;orthogonalLoop=1;jettySize=auto;html=1;startArrow=none;startFill=0;endArrow=none;endFill=0;shape=link;" edge="1" parent="1" source="aL31cBoGjBFPOwP5rx8Z-92" target="pqOMz7-BR9ZxwAHgmei3-5">
          <mxGeometry relative="1" as="geometry" />
        </mxCell>
        <mxCell id="aL31cBoGjBFPOwP5rx8Z-109" style="edgeStyle=none;rounded=0;jumpStyle=none;orthogonalLoop=1;jettySize=auto;html=1;entryX=0.75;entryY=0;entryDx=0;entryDy=0;startArrow=halfCircle;startFill=0;endArrow=none;endFill=0;" edge="1" parent="1" target="aL31cBoGjBFPOwP5rx8Z-108">
          <mxGeometry relative="1" as="geometry">
            <mxPoint x="110" y="240" as="sourcePoint" />
          </mxGeometry>
        </mxCell>
        <mxCell id="aL31cBoGjBFPOwP5rx8Z-92" value="d" style="ellipse;whiteSpace=wrap;html=1;aspect=fixed;" vertex="1" parent="1">
          <mxGeometry x="110" y="220" width="20" height="20" as="geometry" />
        </mxCell>
        <mxCell id="aL31cBoGjBFPOwP5rx8Z-95" style="edgeStyle=none;rounded=0;jumpStyle=none;orthogonalLoop=1;jettySize=auto;html=1;exitX=0.5;exitY=1;exitDx=0;exitDy=0;startArrow=none;startFill=0;endArrow=halfCircle;endFill=0;" edge="1" parent="1" source="aL31cBoGjBFPOwP5rx8Z-94">
          <mxGeometry relative="1" as="geometry">
            <mxPoint x="100" y="220" as="targetPoint" />
          </mxGeometry>
        </mxCell>
        <mxCell id="aL31cBoGjBFPOwP5rx8Z-94" value="D&#39;PAY" style="whiteSpace=wrap;html=1;align=center;" vertex="1" parent="1">
          <mxGeometry x="30" y="170" width="100" height="40" as="geometry" />
        </mxCell>
        <mxCell id="aL31cBoGjBFPOwP5rx8Z-100" style="edgeStyle=none;rounded=0;jumpStyle=none;orthogonalLoop=1;jettySize=auto;html=1;exitX=0.5;exitY=1;exitDx=0;exitDy=0;entryX=0.304;entryY=-0.036;entryDx=0;entryDy=0;entryPerimeter=0;startArrow=none;startFill=0;endArrow=none;endFill=0;" edge="1" parent="1" source="aL31cBoGjBFPOwP5rx8Z-97" target="aL31cBoGjBFPOwP5rx8Z-94">
          <mxGeometry relative="1" as="geometry" />
        </mxCell>
        <mxCell id="aL31cBoGjBFPOwP5rx8Z-97" value="Diskon" style="ellipse;whiteSpace=wrap;html=1;align=center;" vertex="1" parent="1">
          <mxGeometry x="10" y="100" width="100" height="40" as="geometry" />
        </mxCell>
        <mxCell id="aL31cBoGjBFPOwP5rx8Z-102" style="edgeStyle=none;rounded=0;jumpStyle=none;orthogonalLoop=1;jettySize=auto;html=1;exitX=0;exitY=0.5;exitDx=0;exitDy=0;entryX=1;entryY=0.75;entryDx=0;entryDy=0;startArrow=none;startFill=0;endArrow=none;endFill=0;shape=link;" edge="1" parent="1" source="aL31cBoGjBFPOwP5rx8Z-101" target="aL31cBoGjBFPOwP5rx8Z-41">
          <mxGeometry relative="1" as="geometry" />
        </mxCell>
        <mxCell id="aL31cBoGjBFPOwP5rx8Z-103" style="edgeStyle=none;shape=link;rounded=0;jumpStyle=none;orthogonalLoop=1;jettySize=auto;html=1;exitX=1;exitY=0.5;exitDx=0;exitDy=0;startArrow=none;startFill=0;endArrow=none;endFill=0;entryX=0;entryY=0.25;entryDx=0;entryDy=0;" edge="1" parent="1" source="aL31cBoGjBFPOwP5rx8Z-101" target="aL31cBoGjBFPOwP5rx8Z-104">
          <mxGeometry relative="1" as="geometry">
            <mxPoint x="580" y="530" as="targetPoint" />
            <Array as="points">
              <mxPoint x="580" y="530" />
            </Array>
          </mxGeometry>
        </mxCell>
        <mxCell id="aL31cBoGjBFPOwP5rx8Z-101" value="MENGISI" style="shape=rhombus;double=1;perimeter=rhombusPerimeter;whiteSpace=wrap;html=1;align=center;" vertex="1" parent="1">
          <mxGeometry x="397" y="490" width="120" height="60" as="geometry" />
        </mxCell>
        <mxCell id="aL31cBoGjBFPOwP5rx8Z-104" value="TESTIMONI" style="whiteSpace=wrap;html=1;align=center;" vertex="1" parent="1">
          <mxGeometry x="585" y="520" width="100" height="40" as="geometry" />
        </mxCell>
        <mxCell id="aL31cBoGjBFPOwP5rx8Z-105" value="1" style="text;html=1;strokeColor=none;fillColor=none;align=center;verticalAlign=middle;whiteSpace=wrap;rounded=0;" vertex="1" parent="1">
          <mxGeometry x="377" y="490" width="40" height="20" as="geometry" />
        </mxCell>
        <mxCell id="aL31cBoGjBFPOwP5rx8Z-106" value="1" style="text;html=1;strokeColor=none;fillColor=none;align=center;verticalAlign=middle;whiteSpace=wrap;rounded=0;" vertex="1" parent="1">
          <mxGeometry x="517" y="500" width="40" height="20" as="geometry" />
        </mxCell>
        <mxCell id="aL31cBoGjBFPOwP5rx8Z-107" value="&lt;span style=&quot;border-bottom: 1px dotted&quot;&gt;MetodePembayaran&lt;/span&gt;" style="ellipse;whiteSpace=wrap;html=1;align=center;" vertex="1" parent="1">
          <mxGeometry x="292.5" y="680" width="117.5" height="40" as="geometry" />
        </mxCell>
        <mxCell id="aL31cBoGjBFPOwP5rx8Z-108" value="NON_D&#39;PAY" style="whiteSpace=wrap;html=1;align=center;" vertex="1" parent="1">
          <mxGeometry x="10" y="270" width="100" height="40" as="geometry" />
        </mxCell>
        <mxCell id="aL31cBoGjBFPOwP5rx8Z-110" value="" style="endArrow=none;html=1;exitX=-0.05;exitY=0.3;exitDx=0;exitDy=0;exitPerimeter=0;" edge="1" parent="1">
          <mxGeometry width="50" height="50" relative="1" as="geometry">
            <mxPoint x="111" y="223" as="sourcePoint" />
            <mxPoint x="92" y="217" as="targetPoint" />
          </mxGeometry>
        </mxCell>
        <mxCell id="aL31cBoGjBFPOwP5rx8Z-112" value="" style="endArrow=none;html=1;exitX=0;exitY=1;exitDx=0;exitDy=0;" edge="1" parent="1">
          <mxGeometry width="50" height="50" relative="1" as="geometry">
            <mxPoint x="113.92893218813452" y="237.07106781186553" as="sourcePoint" />
            <mxPoint x="101" y="250" as="targetPoint" />
          </mxGeometry>
        </mxCell>
        <mxCell id="aL31cBoGjBFPOwP5rx8Z-114" value="MetodePembayaran" style="ellipse;whiteSpace=wrap;html=1;align=center;" vertex="1" parent="1">
          <mxGeometry x="270" y="230" width="120" height="40" as="geometry" />
        </mxCell>
        <mxCell id="aL31cBoGjBFPOwP5rx8Z-118" style="edgeStyle=none;rounded=0;jumpStyle=none;orthogonalLoop=1;jettySize=auto;html=1;exitX=0.5;exitY=0;exitDx=0;exitDy=0;entryX=0.25;entryY=1;entryDx=0;entryDy=0;startArrow=none;startFill=0;endArrow=none;endFill=0;" edge="1" parent="1" source="aL31cBoGjBFPOwP5rx8Z-117" target="aL31cBoGjBFPOwP5rx8Z-104">
          <mxGeometry relative="1" as="geometry" />
        </mxCell>
        <mxCell id="aL31cBoGjBFPOwP5rx8Z-117" value="Rating" style="ellipse;whiteSpace=wrap;html=1;align=center;" vertex="1" parent="1">
          <mxGeometry x="557" y="620" width="100" height="40" as="geometry" />
        </mxCell>
        <mxCell id="aL31cBoGjBFPOwP5rx8Z-120" style="edgeStyle=none;rounded=0;jumpStyle=none;orthogonalLoop=1;jettySize=auto;html=1;exitX=0.5;exitY=0;exitDx=0;exitDy=0;entryX=0.75;entryY=1;entryDx=0;entryDy=0;startArrow=none;startFill=0;endArrow=none;endFill=0;" edge="1" parent="1" source="aL31cBoGjBFPOwP5rx8Z-119" target="aL31cBoGjBFPOwP5rx8Z-104">
          <mxGeometry relative="1" as="geometry" />
        </mxCell>
        <mxCell id="aL31cBoGjBFPOwP5rx8Z-119" value="Isi" style="ellipse;whiteSpace=wrap;html=1;align=center;" vertex="1" parent="1">
          <mxGeometry x="670" y="625" width="100" height="40" as="geometry" />
        </mxCell>
        <mxCell id="aL31cBoGjBFPOwP5rx8Z-122" style="edgeStyle=none;rounded=0;jumpStyle=none;orthogonalLoop=1;jettySize=auto;html=1;exitX=0;exitY=0.5;exitDx=0;exitDy=0;entryX=1;entryY=0.5;entryDx=0;entryDy=0;startArrow=none;startFill=0;endArrow=none;endFill=0;" edge="1" parent="1" source="aL31cBoGjBFPOwP5rx8Z-121" target="aL31cBoGjBFPOwP5rx8Z-104">
          <mxGeometry relative="1" as="geometry" />
        </mxCell>
        <mxCell id="aL31cBoGjBFPOwP5rx8Z-121" value="TanggalPengisian" style="ellipse;whiteSpace=wrap;html=1;align=center;" vertex="1" parent="1">
          <mxGeometry x="720" y="530" width="100" height="40" as="geometry" />
        </mxCell>
      </root>
    </mxGraphModel>
  </diagram>
</mxfile>
